SystemC_FSM/Ampel_fsm.vcd
$date
     Mar 23, 2020       11:52:10
$end

$version
 SystemC 2.3.3-Accellera --- Jan 12 2020 19:22:29
$end

$timescale
     1 ps
$end

$scope module SystemC $end
$var wire    1  aaaaa  Button       $end
$var wire    1  aaaab  ROT_A       $end
$var wire    1  aaaac  GELB_A       $end
$var wire    1  aaaad  GRUEN_A       $end
$var wire    1  aaaae  ROT_F       $end
$var wire    1  aaaaf  GRUEN_F       $end
$var wire    1  aaaag  CLK       $end
$upscope $end
$enddefinitions  $end

$comment
All initial values are dumped below at time 0 sec = 0 timescale units.
$end

$dumpvars
0aaaaa
0aaaab
0aaaac
1aaaad
1aaaae
0aaaaf
1aaaag
$end

#500
0aaaag

#1000
1aaaag

#1500
0aaaag

#2000
1aaaag

#2500
0aaaag

#3000
1aaaag

#3500
0aaaag

#4000
1aaaag

#4500
0aaaag

#5000
1aaaaa
1aaaac
0aaaad
1aaaag

#5500
0aaaag

#6000
1aaaag

#6500
0aaaag

#7000
1aaaag

#7500
0aaaag

#8000
1aaaag

#8500
0aaaag

#9000
0aaaaa
1aaaag

#9500
0aaaag

#10000
1aaaag

#10500
0aaaag

#11000
1aaaag

#11500
0aaaag

#12000
1aaaag

#12500
0aaaag

#13000
1aaaag

#13500
0aaaag

#14000
1aaaag

#14500
0aaaag

#15000
1aaaab
0aaaac
1aaaag

#15500
0aaaag

#16000
1aaaag

#16500
0aaaag

#17000
1aaaag

#17500
0aaaag

#18000
1aaaag

#18500
0aaaag

#19000
1aaaag

#19500
0aaaag

#20000
1aaaag

#20500
0aaaag

#21000
1aaaag

#21500
0aaaag

#22000
1aaaag

#22500
0aaaag

#23000
1aaaag

#23500
0aaaag

#24000
1aaaag

#24500
0aaaag

#25000
0aaaae
1aaaaf
1aaaag

#25500
0aaaag

#26000
1aaaag

#26500
0aaaag

#27000
1aaaag

#27500
0aaaag

#28000
1aaaag

#28500
0aaaag

#29000
1aaaag

#29500
0aaaag

#30000
1aaaag

#30500
0aaaag

#31000
1aaaag

#31500
0aaaag

#32000
1aaaag

#32500
0aaaag

#33000
1aaaag

#33500
0aaaag

#34000
1aaaag

#34500
0aaaag

#35000
1aaaae
0aaaaf
1aaaag

#35500
0aaaag

#36000
1aaaag

#36500
0aaaag

#37000
1aaaag

#37500
0aaaag

#38000
1aaaag

#38500
0aaaag

#39000
1aaaag

#39500
0aaaag

#40000
1aaaag

#40500
0aaaag

#41000
1aaaag

#41500
0aaaag

#42000
1aaaag

#42500
0aaaag

#43000
1aaaag

#43500
0aaaag

#44000
1aaaag

#44500
0aaaag

#45000
1aaaac
1aaaag

#45500
0aaaag

#46000
1aaaag

#46500
0aaaag

#47000
1aaaag

#47500
0aaaag

#48000
1aaaag

#48500
0aaaag

#49000
1aaaag

#49500
0aaaag

#50000
1aaaag

#50500
0aaaag

#51000
1aaaag

#51500
0aaaag

#52000
1aaaag

#52500
0aaaag

#53000
1aaaag

#53500
0aaaag

#54000
1aaaag

#54500
0aaaag

#55000
0aaaab
0aaaac
1aaaad
1aaaag

#55500
0aaaag

#56000
1aaaag

#56500
0aaaag

#57000
1aaaag

#57500
0aaaag

#58000
1aaaag

#58500
0aaaag

#59000
1aaaag

#59500
0aaaag

#60000
1aaaag

#60500
0aaaag

#61000
1aaaag

#61500
0aaaag

#62000
1aaaag

#62500
0aaaag

#63000
1aaaag

#63500
0aaaag

#64000
1aaaag

#64500
0aaaag

#65000
1aaaag

#65500
0aaaag

#66000
1aaaag

#66500
0aaaag

#67000
1aaaag

#67500
0aaaag

#68000
1aaaag

#68500
0aaaag

#69000
1aaaag

#69500
0aaaag

#70000
1aaaag

#70500
0aaaag

#71000
1aaaag

#71500
0aaaag

#72000
1aaaag

#72500
0aaaag

#73000
1aaaag

#73500
0aaaag

#74000
1aaaag

#74500
0aaaag

#75000
1aaaag

#75500
0aaaag

#76000
1aaaag

#76500
0aaaag

#77000
1aaaag

#77500
0aaaag

#78000
1aaaag

#78500
0aaaag

#79000
1aaaag

#79500
0aaaag

#80000
1aaaag

#80500
0aaaag

#81000
1aaaag

#81500
0aaaag

#82000
1aaaag

#82500
0aaaag

#83000
1aaaag

#83500
0aaaag

#84000
1aaaag

#84500
0aaaag

#85000
1aaaag

#85500
0aaaag

#86000
1aaaag

#86500
0aaaag

#87000
1aaaag

#87500
0aaaag

#88000
1aaaag

#88500
0aaaag

#89000
1aaaag

#89500
0aaaag

#90000
1aaaag

#90500
0aaaag

#91000
1aaaag

#91500
0aaaag

#92000
1aaaag

#92500
0aaaag

#93000
1aaaag

#93500
0aaaag

#94000
1aaaag

#94500
0aaaag

#95000
1aaaag

#95500
0aaaag

#96000
1aaaag

#96500
0aaaag

#97000
1aaaag

#97500
0aaaag

#98000
1aaaag

#98500
0aaaag

#99000
1aaaag

#99500
0aaaag

#100000
1aaaag

#100500
0aaaag

#101000
1aaaag

#101500
0aaaag

#102000
1aaaag

#102500
0aaaag

#103000
1aaaag

#103500
0aaaag

#104000
1aaaag

#104500
0aaaag

#105000
1aaaag

#105500
0aaaag

#106000
1aaaag

#106500
0aaaag

#107000
1aaaag

#107500
0aaaag

#108000
1aaaag

#108500
0aaaag

#109000
1aaaag

#109500
0aaaag

#110000
1aaaag

#110500
0aaaag

#111000
1aaaag

#111500
0aaaag

#112000
1aaaag

#112500
0aaaag

#113000
1aaaag

#113500
0aaaag

#114000
1aaaag

#114500
0aaaag

#115000
1aaaag

#115500
0aaaag

#116000
1aaaag

#116500
0aaaag

#117000
1aaaag

#117500
0aaaag

#118000
1aaaag

#118500
0aaaag

#119000
1aaaag

#119500
0aaaag

#120000
1aaaag

#120500
0aaaag

#121000
1aaaag

#121500
0aaaag

#122000
1aaaag

#122500
0aaaag

#123000
1aaaag

#123500
0aaaag

#124000
1aaaag

#124500
0aaaag

#125000
1aaaag

#125500
0aaaag

#126000
1aaaag

#126500
0aaaag

#127000
1aaaag

#127500
0aaaag

#128000
1aaaag

#128500
0aaaag

#129000
1aaaag

#129500
0aaaag

#130000
1aaaag

#130500
0aaaag

#131000
1aaaag

#131500
0aaaag

#132000
1aaaag

#132500
0aaaag

#133000
1aaaag

#133500
0aaaag

#134000
1aaaag

#134500
0aaaag

#135000
1aaaag

#135500
0aaaag

#136000
1aaaag

#136500
0aaaag

#137000
1aaaag

#137500
0aaaag

#138000
1aaaag

#138500
0aaaag

#139000
1aaaag

#139500
0aaaag

#140000
1aaaag

#140500
0aaaag

#141000
1aaaag

#141500
0aaaag

#142000
1aaaag

#142500
0aaaag

#143000
1aaaag

#143500
0aaaag

#144000
1aaaag

#144500
0aaaag

#145000
1aaaag

#145500
0aaaag

#146000
1aaaag

#146500
0aaaag

#147000
1aaaag

#147500
0aaaag

#148000
1aaaag

#148500
0aaaag

#149000
1aaaag

#149500
0aaaag

#150000
1aaaag

#150500
0aaaag

#151000
1aaaag

#151500
0aaaag

#152000
1aaaag

#152500
0aaaag

#153000
1aaaag

#153500
0aaaag

#154000
1aaaag

#154500
0aaaag

#155000
1aaaag

#155500
0aaaag

#156000
1aaaag

#156500
0aaaag

#157000
1aaaag

#157500
0aaaag

#158000
1aaaag

#158500
0aaaag

#159000
1aaaag

#159500
0aaaag

#160000
1aaaag

#160500
0aaaag

#161000
1aaaag

#161500
0aaaag

#162000
1aaaag

#162500
0aaaag

#163000
1aaaag

#163500
0aaaag

#164000
1aaaag

#164500
0aaaag

#165000
1aaaag

#165500
0aaaag

#166000
1aaaag

#166500
0aaaag

#167000
1aaaag

#167500
0aaaag

#168000
1aaaag

#168500
0aaaag

#169000
1aaaag

#169500
0aaaag

#170000
1aaaag

#170500
0aaaag

#171000
1aaaag

#171500
0aaaag

#172000
1aaaag

#172500
0aaaag

#173000
1aaaag

#173500
0aaaag

#174000
1aaaag

#174500
0aaaag

#175000
1aaaag

#175500
0aaaag

#176000
1aaaag

#176500
0aaaag

#177000
1aaaag

#177500
0aaaag

#178000
1aaaag

#178500
0aaaag

#179000
1aaaag

#179500
0aaaag

#180000
1aaaag

#180500
0aaaag

#181000
1aaaag

#181500
0aaaag

#182000
1aaaag

#182500
0aaaag

#183000
1aaaag

#183500
0aaaag

#184000
1aaaag

#184500
0aaaag

#185000
1aaaag

#185500
0aaaag

#186000
1aaaag

#186500
0aaaag

#187000
1aaaag

#187500
0aaaag

#188000
1aaaag

#188500
0aaaag

#189000
1aaaag

#189500
0aaaag

#190000
1aaaaa
1aaaac
0aaaad
1aaaag

#190500
0aaaag

#191000
1aaaag

#191500
0aaaag

#192000
1aaaag

#192500
0aaaag

#193000
1aaaag

#193500
0aaaag

#194000
1aaaag

#194500
0aaaag

#195000
1aaaag

#195500
0aaaag

#196000
1aaaag

#196500
0aaaag

#197000
1aaaag

#197500
0aaaag

#198000
1aaaag

#198500
0aaaag

#199000
1aaaag

#199500
0aaaag

#200000
0aaaaa
1aaaab
0aaaac
1aaaag

#200500
0aaaag

#201000
1aaaag

#201500
0aaaag

#202000
1aaaag

#202500
0aaaag

#203000
1aaaag

#203500
0aaaag

#204000
1aaaag

#204500
0aaaag

#205000
1aaaag

#205500
0aaaag

#206000
1aaaag

#206500
0aaaag

#207000
1aaaag

#207500
0aaaag

#208000
1aaaag

#208500
0aaaag

#209000
1aaaag

#209500
0aaaag

#210000
0aaaae
1aaaaf
1aaaag

#210500
0aaaag

#211000
1aaaag

#211500
0aaaag

#212000
1aaaag

#212500
0aaaag

#213000
1aaaag

#213500
0aaaag

#214000
1aaaag

#214500
0aaaag

#215000
1aaaag

#215500
0aaaag

#216000
1aaaag

#216500
0aaaag

#217000
1aaaag

#217500
0aaaag

#218000
1aaaag

#218500
0aaaag

#219000
1aaaag

#219500
0aaaag

#220000
1aaaae
0aaaaf
1aaaag

#220500
0aaaag

#221000
1aaaag

#221500
0aaaag

#222000
1aaaag

#222500
0aaaag

#223000
1aaaag

#223500
0aaaag

#224000
1aaaag

#224500
0aaaag

#225000
1aaaag

#225500
0aaaag

#226000
1aaaag

#226500
0aaaag

#227000
1aaaag

#227500
0aaaag

#228000
1aaaag

#228500
0aaaag

#229000
1aaaag

#229500
0aaaag

#230000
1aaaac
1aaaag

#230500
0aaaag

#231000
1aaaag

#231500
0aaaag

#232000
1aaaag

#232500
0aaaag

#233000
1aaaag

#233500
0aaaag

#234000
1aaaag

#234500
0aaaag

#235000
1aaaag

#235500
0aaaag

#236000
1aaaag

#236500
0aaaag

#237000
1aaaag

#237500
0aaaag

#238000
1aaaag

#238500
0aaaag

#239000
1aaaag

#239500
0aaaag

#240000
0aaaab
0aaaac
1aaaad
1aaaag

